Models in Multiple Languages
…
library(JuliaCall)

julia_setup(JULIA_HOME = "/Applications/Julia-1.8.app/Contents/Resources/julia/bin")

Julia version 1.8.5 at location /Applications/Julia-1.8.app/Contents/Resources/julia/bin will be used.

Loading setup script for JuliaCall...

Finish loading setup script for JuliaCall.

using Tables, MixedModels, StatFiles, DataFrames, CategoricalArrays, DataFramesMeta

df = DataFrame(load("/Users/agrogan/Desktop/GitHub/multilevel-thinking/simulate-and-analyze-multilevel-data/simulated_multilevel_data.dta"))

3000×8 DataFrame
  Row │ country   HDI       family    id       group     physical_punishment   ⋯
      │ Float32?  Float32?  Float32?  String?  Float32?  Float32?              ⋯
──────┼─────────────────────────────────────────────────────────────────────────
    1 │      1.0      69.0       1.0  1.1           2.0                  3.0   ⋯
    2 │      1.0      69.0       2.0  1.2           1.0                  5.0
    3 │      1.0      69.0       3.0  1.3           1.0                  2.0
    4 │      1.0      69.0       4.0  1.4           2.0                  1.0
    5 │      1.0      69.0       5.0  1.5           1.0                  1.0   ⋯
    6 │      1.0      69.0       6.0  1.6           2.0                  5.0
    7 │      1.0      69.0       7.0  1.7           2.0                  1.0
    8 │      1.0      69.0       8.0  1.8           2.0                  5.0
  ⋮   │    ⋮         ⋮         ⋮         ⋮        ⋮               ⋮            ⋱
 2994 │     30.0      61.0      94.0  30.94         1.0                  2.0   ⋯
 2995 │     30.0      61.0      95.0  30.95         1.0                 -1.0
 2996 │     30.0      61.0      96.0  30.96         1.0                  1.0
 2997 │     30.0      61.0      97.0  30.97         2.0                  1.0
 2998 │     30.0      61.0      98.0  30.98         2.0                  3.0   ⋯
 2999 │     30.0      61.0      99.0  30.99         2.0                 -1.0
 3000 │     30.0      61.0     100.0  30.100        2.0                  2.0
                                                 2 columns and 2985 rows omitted

@transform!(df, :country = categorical(:country))

3000×8 DataFrame
  Row │ country  HDI       family    id       group     physical_punishment  w ⋯
      │ Cat…?    Float32?  Float32?  String?  Float32?  Float32?             F ⋯
──────┼─────────────────────────────────────────────────────────────────────────
    1 │ 1.0          69.0       1.0  1.1           2.0                  3.0    ⋯
    2 │ 1.0          69.0       2.0  1.2           1.0                  5.0
    3 │ 1.0          69.0       3.0  1.3           1.0                  2.0
    4 │ 1.0          69.0       4.0  1.4           2.0                  1.0
    5 │ 1.0          69.0       5.0  1.5           1.0                  1.0    ⋯
    6 │ 1.0          69.0       6.0  1.6           2.0                  5.0
    7 │ 1.0          69.0       7.0  1.7           2.0                  1.0
    8 │ 1.0          69.0       8.0  1.8           2.0                  5.0
  ⋮   │    ⋮        ⋮         ⋮         ⋮        ⋮               ⋮             ⋱
 2994 │ 30.0         61.0      94.0  30.94         1.0                  2.0    ⋯
 2995 │ 30.0         61.0      95.0  30.95         1.0                 -1.0
 2996 │ 30.0         61.0      96.0  30.96         1.0                  1.0
 2997 │ 30.0         61.0      97.0  30.97         2.0                  1.0
 2998 │ 30.0         61.0      98.0  30.98         2.0                  3.0    ⋯
 2999 │ 30.0         61.0      99.0  30.99         2.0                 -1.0
 3000 │ 30.0         61.0     100.0  30.100        2.0                  2.0
                                                 2 columns and 2985 rows omitted
…
